Estimate differences (unstandardized and Cohen's d) — estim_diff • neuroUp
…
tbl_total returns a tibble::tibble() containing estimates of the difference
in raw means and of Cohen's d with associated SD, SE, 95% CI, and width of
the 95% CI (lower, upper) for all sample sizes, including the permutation
number.

    Examples

data_feedback <- feedback
estim_diff(data_feedback,
  c("mfg_learning", "mfg_application"), 20:271,
  10, "Feedback middle frontal gyrus")
#> $tbl_select
#> # A tibble: 55 × 15
#>    N     estimate variance stdev sterror lower upper cohens_d d_variance
#>    <fct>    <dbl>    <dbl> <dbl>   <dbl> <dbl> <dbl>    <dbl>      <dbl>
#>  1 20        2.72     1.98  1.41  0.315   2.10  3.34     1.93          1
#>  2 70        2.64     2.10  1.45  0.173   2.30  2.98     1.82          1
#>  3 120       2.79     2.08  1.44  0.132   2.53  3.04     1.93          1
#>  4 170       2.75     2.43  1.56  0.120   2.52  2.99     1.77          1
#>  5 271       2.83     2.32  1.52  0.0925  2.65  3.01     1.86          1
#>  6 20        2.71     2.30  1.52  0.339   2.05  3.38     1.79          1
#>  7 70        2.80     2.55  1.60  0.191   2.42  3.17     1.75          1
#>  8 120       2.73     2.62  1.62  0.148   2.44  3.02     1.69          1
#>  9 170       2.92     2.24  1.50  0.115   2.69  3.14     1.95          1
#> 10 271       2.83     2.32  1.52  0.0925  2.65  3.01     1.86          1
#> # ℹ 45 more rows
#> # ℹ 6 more variables: d_sterror <dbl>, d_lower <dbl>, d_upper <dbl>,
#> #   permutation <fct>, nozero <dbl>, d_nozero <dbl>
…
#> 
#> $tbl_total
#> # A tibble: 2,520 × 13
#>        N estimate variance stdev sterror lower upper cohens_d d_variance
#>    <int>    <dbl>    <dbl> <dbl>   <dbl> <dbl> <dbl>    <dbl>      <dbl>
#>  1    20     2.72     1.98  1.41   0.315  2.10  3.34     1.93          1
#>  2    21     2.72     1.59  1.26   0.275  2.18  3.26     2.16          1
#>  3    22     3.09     2.74  1.65   0.353  2.39  3.78     1.87          1
#>  4    23     2.72     2.64  1.62   0.339  2.05  3.38     1.67          1
#>  5    24     2.72     3.64  1.91   0.390  1.96  3.49     1.43          1
#>  6    25     2.47     1.52  1.23   0.246  1.99  2.96     2.01          1
#>  7    26     2.67     2.72  1.65   0.324  2.03  3.30     1.62          1
#>  8    27     2.90     1.96  1.40   0.269  2.38  3.43     2.07          1
#>  9    28     2.53     1.38  1.17   0.222  2.10  2.97     2.16          1
#> 10    29     2.38     2.14  1.46   0.271  1.84  2.91     1.62          1
#> # ℹ 2,510 more rows
#> # ℹ 4 more variables: d_sterror <dbl>, d_lower <dbl>, d_upper <dbl>,
#> #   permutation <int>
…
