Introduction to neuroUp • neuroUp
…
tbl_select & tbl_total: tibbles with estimates

The estim_diff() function also returns two tibbles with
the values on which the previous plots are based.

tbl_select returns a tibble containing estimates of the
difference in raw means and of Cohen’s d with associated SD, SE, 95% CI,
and width of the 95% CI (lower, upper) for five different sample sizes
(starting with the minimum sample size, then 1/5th parts of the total
dataset). This is the summary data used to plot the figures:

feedback_estim$tbl_select
#> # A tibble: 55 × 13
#>    N     estimate variance stdev sterror lower upper cohens_d d_lower d_upper
#>    <fct>    <dbl>    <dbl> <dbl>   <dbl> <dbl> <dbl>    <dbl>   <dbl>   <dbl>
#>  1 20        3.21     3.07  1.75  0.392   2.45  3.98     1.89    1.24    2.54
#>  2 70        2.82     2.32  1.52  0.182   2.46  3.18     1.89    1.50    2.28
#>  3 120       2.89     2.41  1.55  0.142   2.61  3.17     1.88    1.64    2.13
#>  4 170       2.67     2.21  1.49  0.114   2.45  2.89     1.80    1.54    2.05
#>  5 271       2.83     2.32  1.52  0.0925  2.65  3.01     1.87    1.70    2.04
#>  6 20        2.97     2.60  1.61  0.360   2.27  3.68     1.91    1.49    2.34
#>  7 70        2.92     2.87  1.69  0.202   2.52  3.32     1.75    1.41    2.09
#>  8 120       2.68     2.44  1.56  0.143   2.40  2.96     1.75    1.48    2.02
#>  9 170       2.94     2.41  1.55  0.119   2.71  3.18     1.92    1.67    2.16
#> 10 271       2.83     2.32  1.52  0.0925  2.65  3.01     1.86    1.67    2.04
#> # ℹ 45 more rows
#> # ℹ 3 more variables: permutation <fct>, nozero <dbl>, d_nozero <dbl>

tbl_total returns a tibble containing estimates of the
difference in raw means and of Cohen’s d with associated SD, SE, 95% CI,
and width of the 95% CI (lower, upper) for all sample sizes, including
the permutation number. This is the total (large) table with all the
estimates for all requested sample sizes and permutations:

feedback_estim$tbl_total
#> # A tibble: 5,040 × 11
#>        N estimate variance stdev sterror lower upper cohens_d d_lower d_upper
#>    <int>    <dbl>    <dbl> <dbl>   <dbl> <dbl> <dbl>    <dbl>   <dbl>   <dbl>
#>  1    20     3.03     1.93  1.39   0.311  2.42  3.64     2.28   1.44     3.12
#>  2    21     3.24     3.68  1.92   0.419  2.42  4.06     1.80   0.754    2.85
#>  3    22     2.80     1.64  1.28   0.273  2.27  3.34     2.25   1.57     2.94
#>  4    23     2.84     2.53  1.59   0.331  2.19  3.49     1.84   1.25     2.43
#>  5    24     3.01     3.50  1.87   0.382  2.27  3.76     1.68   1.16     2.20
#>  6    25     2.71     2.20  1.48   0.296  2.13  3.29     1.86   1.28     2.44
#>  7    26     3.19     2.19  1.48   0.290  2.62  3.76     2.14   1.49     2.79
#>  8    27     2.75     2.60  1.61   0.310  2.14  3.36     1.82   1.19     2.45
#>  9    28     2.80     1.48  1.22   0.230  2.35  3.25     2.37   1.81     2.93
#> 10    29     2.67     2.36  1.54   0.285  2.11  3.23     1.80   1.35     2.24
#> # ℹ 5,030 more rows
#> # ℹ 1 more variable: permutation <int>
…
tbl_select & tbl_total: tibbles with estimates of the
correlations

The estim_corr() function also returns two tibbles with
the values on which the previous plots are based.

tbl_select returns a tibble containing estimates of the
Pearson’s correlation between two correlated variables with associated
SD, SE, 95% CI, and width of the 95% CI (lower, upper) for five
different sample sizes (starting with the minimum sample size, then
1/5th parts of the total dataset). This is the summary data used to plot
the figures:

gambling_estim$tbl_select
#> # A tibble: 55 × 6
#>    N     correlation   lower  upper permutation nozero
#>    <fct>       <dbl>   <dbl>  <dbl> <fct>        <dbl>
#>  1 20        0.0708  -0.384  0.498  1               NA
#>  2 60        0.130   -0.128  0.372  1               NA
#>  3 100      -0.00247 -0.199  0.194  1               NA
#>  4 140      -0.0982  -0.260  0.0688 1               NA
#>  5 221      -0.0405  -0.172  0.0920 1               NA
#>  6 20       -0.242   -0.618  0.225  2               NA
#>  7 60        0.233   -0.0224 0.460  2               NA
#>  8 100      -0.0800  -0.272  0.118  2               NA
#>  9 140      -0.0827  -0.245  0.0844 2               NA
#> 10 221      -0.0405  -0.172  0.0920 2               NA
#> # ℹ 45 more rows

tbl_total returns a tibble containing estimates of the
Pearson’s correlation between two correlated variables with associated
SD, SE, 95% CI, and width of the 95% CI (lower, upper) for all sample
sizes, including the permutation number. This is the total (large) table
with all the estimates for all requested sample sizes and
permutations:

gambling_estim$tbl_total
#> # A tibble: 4,040 × 5
#>        N correlation   lower  upper permutation
#>    <int>       <dbl>   <dbl>  <dbl>       <int>
#>  1    20      0.0708 -0.384  0.498            1
#>  2    21     -0.377  -0.696  0.0649           1
#>  3    22     -0.176  -0.556  0.266            1
#>  4    23     -0.246  -0.597  0.185            1
#>  5    24     -0.180  -0.544  0.241            1
#>  6    25      0.0508 -0.351  0.437            1
#>  7    26     -0.229  -0.566  0.174            1
#>  8    27     -0.119  -0.478  0.273            1
#>  9    28      0.288  -0.0950 0.597            1
#> 10    29      0.0859 -0.290  0.439            1
#> # ℹ 4,030 more rows
…
